<<<<<<< HEAD
<?xml version="1.0" encoding="UTF-8"?>
<!DOCTYPE svg PUBLIC "-//W3C//DTD SVG 1.1//EN" "http://www.w3.org/Graphics/SVG/1.1/DTD/svg11.dtd">
<!-- Creator: CorelDRAW X8 -->
<svg xmlns="http://www.w3.org/2000/svg" xml:space="preserve" width="16.7638mm" height="14.5626mm" version="1.1" style="shape-rendering:geometricPrecision; text-rendering:geometricPrecision; image-rendering:optimizeQuality; fill-rule:evenodd; clip-rule:evenodd"
viewBox="0 0 1676 1456"
 xmlns:xlink="http://www.w3.org/1999/xlink">
 <defs>
  <style type="text/css">
   <![CDATA[
    .fil4 {fill:#FABA2F;fill-rule:nonzero}
    .fil2 {fill:#D0CCCE;fill-rule:nonzero}
    .fil3 {fill:#696567;fill-rule:nonzero}
    .fil5 {fill:#616060;fill-rule:nonzero}
    .fil0 {fill:#4E4A4A;fill-rule:nonzero}
    .fil1 {fill:#34BDC9;fill-rule:nonzero}
   ]]>
  </style>
 </defs>
 <g id="Слой_x0020_1">
  <metadata id="CorelCorpID_0Corel-Layer"/>
  <g id="_1215303688">
   <path class="fil0" d="M15 930c-4,0 -8,-2 -11,-5 -7,-6 -7,-16 0,-22l65 -65c6,-7 16,-7 22,0 6,6 6,16 0,22l-65 65c-3,3 -7,5 -11,5z"/>
   <path class="fil0" d="M80 930c-4,0 -8,-2 -11,-5l-65 -65c-7,-6 -7,-16 0,-22 6,-7 16,-7 22,0l65 65c6,6 6,16 0,22 -3,3 -7,5 -11,5z"/>
   <g>
    <path class="fil0" d="M1312 137c-4,0 -8,-2 -11,-5l-65 -65c-6,-6 -6,-16 0,-22 6,-6 16,-6 23,0l65 65c6,6 6,16 0,22 -3,3 -7,5 -12,5z"/>
    <path class="fil0" d="M1247 137c4,0 8,-2 12,-5l65 -65c6,-6 6,-16 0,-22 -7,-6 -16,-6 -23,0l-65 65c-6,6 -6,16 0,22 3,3 7,5 11,5z"/>
   </g>
   <g>
    <path class="fil0" d="M1542 495c-4,0 -8,-1 -11,-4l-65 -65c-6,-7 -6,-17 0,-23 6,-6 16,-6 22,0l66 65c6,7 6,17 0,23 -4,3 -8,4 -12,4z"/>
    <path class="fil0" d="M1477 495c4,0 8,-1 11,-4l66 -65c6,-7 6,-17 0,-23 -7,-6 -17,-6 -23,0l-65 65c-6,7 -6,17 0,23 3,3 7,4 11,4z"/>
   </g>
   <path class="fil0" d="M898 15c0,9 -7,17 -16,17 -9,0 -16,-8 -16,-17 0,-9 7,-16 16,-16 9,0 16,7 16,16z"/>
   <path class="fil0" d="M1677 660c0,9 -7,16 -16,16 -9,0 -16,-7 -16,-16 0,-9 7,-16 16,-16 9,0 16,7 16,16z"/>
   <path class="fil0" d="M1677 660c0,9 -7,16 -16,16 -9,0 -16,-7 -16,-16 0,-9 7,-16 16,-16 9,0 16,7 16,16z"/>
   <path class="fil0" d="M180 604c0,13 -10,23 -23,23 -13,0 -24,-10 -24,-23 0,-13 11,-23 24,-23 13,0 23,10 23,23z"/>
   <path class="fil1" d="M1545 1441l-887 0c-10,0 -19,-8 -19,-19l0 -522c0,-10 9,-19 19,-19l887 0c10,0 19,9 19,19l0 522c0,11 -9,19 -19,19z"/>
   <path class="fil0" d="M1521 1457l-594 0 0 -31 594 0c11,0 21,-8 21,-18l0 -494c0,-10 -10,-17 -21,-17l-551 0 0 -32 551 0c32,0 59,22 59,49l0 494c0,27 -27,49 -59,49z"/>
   <path class="fil2" d="M1004 1441l-346 0c-2,0 -5,0 -8,-1l0 0c3,1 6,1 8,1l346 0 0 0z"/>
   <path class="fil3" d="M650 1440l0 0c-6,-3 -11,-10 -11,-18l0 0c0,8 5,15 11,18z"/>
   <path class="fil0" d="M1039 1433l0 -7 10 0c-3,2 -7,5 -10,7zm38 -536l-2 0 0 -16 2 0 0 16z"/>
   <path class="fil4" d="M919 1441l-533 0c-58,0 -106,-47 -106,-106l0 -828c0,-59 48,-106 106,-106l533 0c58,0 106,47 106,106l0 828c0,59 -48,106 -106,106z"/>
   <polygon class="fil0" points="270,1018 291,1018 291,950 270,950 "/>
   <path class="fil0" d="M898 1457l-491 0c-79,0 -143,-64 -143,-142l0 -277 32 0 0 277c0,61 50,111 111,111l491 0c61,0 111,-50 111,-111l0 -788c0,-61 -50,-110 -111,-110l-491 0c-61,0 -111,49 -111,110l0 395 -32 0 0 -395c0,-78 64,-142 143,-142l491 0c79,0 143,64 143,142l0 788c0,78 -64,142 -143,142z"/>
   <polygon class="fil0" points="549,400 581,400 581,187 549,187 "/>
   <polygon class="fil0" points="730,400 762,400 762,187 730,187 "/>
   <path class="fil5" d="M787 189l-270 0c-20,0 -37,-17 -37,-38 0,-20 17,-37 37,-37l270 0c21,0 38,17 38,37 0,21 -17,38 -38,38z"/>
   <path class="fil0" d="M517 129c-12,0 -22,10 -22,22 0,13 10,23 22,23l270 0c13,0 22,-10 22,-23 0,-12 -9,-22 -22,-22l-270 0zm270 76l-270 0c-29,0 -53,-24 -53,-54 0,-29 24,-53 53,-53l270 0c30,0 54,24 54,53 0,30 -24,54 -54,54z"/>
   <polygon class="fil0" points="421,1365 453,1365 453,479 421,479 "/>
   <polygon class="fil0" points="562,1365 594,1365 594,479 562,479 "/>
   <polygon class="fil0" points="703,1365 734,1365 734,479 703,479 "/>
   <polygon class="fil0" points="844,1365 875,1365 875,479 844,479 "/>
   <path class="fil0" d="M1564 1054c-95,0 -172,-77 -172,-173l31 0c0,78 64,141 141,141l0 32z"/>
   <path class="fil0" d="M1423 1436l-31 0c0,-95 77,-173 172,-173l0 32c-77,0 -141,63 -141,141z"/>
   <path class="fil0" d="M1290 869l-36 0c0,-52 -49,-94 -110,-94l-103 0 0 -31 103 0c81,0 146,56 146,125z"/>
   <polygon class="fil0" points="99,1457 157,1457 157,1426 99,1426 "/>
   <polygon class="fil0" points="890,104 1149,104 1149,73 890,73 "/>
  </g>
 </g>
</svg>
=======
<?xml version="1.0" encoding="UTF-8"?>
<!DOCTYPE svg PUBLIC "-//W3C//DTD SVG 1.1//EN" "http://www.w3.org/Graphics/SVG/1.1/DTD/svg11.dtd">
<!-- Creator: CorelDRAW X8 -->
<svg xmlns="http://www.w3.org/2000/svg" xml:space="preserve" width="16.7638mm" height="14.5626mm" version="1.1" style="shape-rendering:geometricPrecision; text-rendering:geometricPrecision; image-rendering:optimizeQuality; fill-rule:evenodd; clip-rule:evenodd"
viewBox="0 0 1676 1456"
 xmlns:xlink="http://www.w3.org/1999/xlink">
 <defs>
  <style type="text/css">
   <![CDATA[
    .fil4 {fill:#FABA2F;fill-rule:nonzero}
    .fil2 {fill:#D0CCCE;fill-rule:nonzero}
    .fil3 {fill:#696567;fill-rule:nonzero}
    .fil5 {fill:#616060;fill-rule:nonzero}
    .fil0 {fill:#4E4A4A;fill-rule:nonzero}
    .fil1 {fill:#34BDC9;fill-rule:nonzero}
   ]]>
  </style>
 </defs>
 <g id="Слой_x0020_1">
  <metadata id="CorelCorpID_0Corel-Layer"/>
  <g id="_1215303688">
   <path class="fil0" d="M15 930c-4,0 -8,-2 -11,-5 -7,-6 -7,-16 0,-22l65 -65c6,-7 16,-7 22,0 6,6 6,16 0,22l-65 65c-3,3 -7,5 -11,5z"/>
   <path class="fil0" d="M80 930c-4,0 -8,-2 -11,-5l-65 -65c-7,-6 -7,-16 0,-22 6,-7 16,-7 22,0l65 65c6,6 6,16 0,22 -3,3 -7,5 -11,5z"/>
   <g>
    <path class="fil0" d="M1312 137c-4,0 -8,-2 -11,-5l-65 -65c-6,-6 -6,-16 0,-22 6,-6 16,-6 23,0l65 65c6,6 6,16 0,22 -3,3 -7,5 -12,5z"/>
    <path class="fil0" d="M1247 137c4,0 8,-2 12,-5l65 -65c6,-6 6,-16 0,-22 -7,-6 -16,-6 -23,0l-65 65c-6,6 -6,16 0,22 3,3 7,5 11,5z"/>
   </g>
   <g>
    <path class="fil0" d="M1542 495c-4,0 -8,-1 -11,-4l-65 -65c-6,-7 -6,-17 0,-23 6,-6 16,-6 22,0l66 65c6,7 6,17 0,23 -4,3 -8,4 -12,4z"/>
    <path class="fil0" d="M1477 495c4,0 8,-1 11,-4l66 -65c6,-7 6,-17 0,-23 -7,-6 -17,-6 -23,0l-65 65c-6,7 -6,17 0,23 3,3 7,4 11,4z"/>
   </g>
   <path class="fil0" d="M898 15c0,9 -7,17 -16,17 -9,0 -16,-8 -16,-17 0,-9 7,-16 16,-16 9,0 16,7 16,16z"/>
   <path class="fil0" d="M1677 660c0,9 -7,16 -16,16 -9,0 -16,-7 -16,-16 0,-9 7,-16 16,-16 9,0 16,7 16,16z"/>
   <path class="fil0" d="M1677 660c0,9 -7,16 -16,16 -9,0 -16,-7 -16,-16 0,-9 7,-16 16,-16 9,0 16,7 16,16z"/>
   <path class="fil0" d="M180 604c0,13 -10,23 -23,23 -13,0 -24,-10 -24,-23 0,-13 11,-23 24,-23 13,0 23,10 23,23z"/>
   <path class="fil1" d="M1545 1441l-887 0c-10,0 -19,-8 -19,-19l0 -522c0,-10 9,-19 19,-19l887 0c10,0 19,9 19,19l0 522c0,11 -9,19 -19,19z"/>
   <path class="fil0" d="M1521 1457l-594 0 0 -31 594 0c11,0 21,-8 21,-18l0 -494c0,-10 -10,-17 -21,-17l-551 0 0 -32 551 0c32,0 59,22 59,49l0 494c0,27 -27,49 -59,49z"/>
   <path class="fil2" d="M1004 1441l-346 0c-2,0 -5,0 -8,-1l0 0c3,1 6,1 8,1l346 0 0 0z"/>
   <path class="fil3" d="M650 1440l0 0c-6,-3 -11,-10 -11,-18l0 0c0,8 5,15 11,18z"/>
   <path class="fil0" d="M1039 1433l0 -7 10 0c-3,2 -7,5 -10,7zm38 -536l-2 0 0 -16 2 0 0 16z"/>
   <path class="fil4" d="M919 1441l-533 0c-58,0 -106,-47 -106,-106l0 -828c0,-59 48,-106 106,-106l533 0c58,0 106,47 106,106l0 828c0,59 -48,106 -106,106z"/>
   <polygon class="fil0" points="270,1018 291,1018 291,950 270,950 "/>
   <path class="fil0" d="M898 1457l-491 0c-79,0 -143,-64 -143,-142l0 -277 32 0 0 277c0,61 50,111 111,111l491 0c61,0 111,-50 111,-111l0 -788c0,-61 -50,-110 -111,-110l-491 0c-61,0 -111,49 -111,110l0 395 -32 0 0 -395c0,-78 64,-142 143,-142l491 0c79,0 143,64 143,142l0 788c0,78 -64,142 -143,142z"/>
   <polygon class="fil0" points="549,400 581,400 581,187 549,187 "/>
   <polygon class="fil0" points="730,400 762,400 762,187 730,187 "/>
   <path class="fil5" d="M787 189l-270 0c-20,0 -37,-17 -37,-38 0,-20 17,-37 37,-37l270 0c21,0 38,17 38,37 0,21 -17,38 -38,38z"/>
   <path class="fil0" d="M517 129c-12,0 -22,10 -22,22 0,13 10,23 22,23l270 0c13,0 22,-10 22,-23 0,-12 -9,-22 -22,-22l-270 0zm270 76l-270 0c-29,0 -53,-24 -53,-54 0,-29 24,-53 53,-53l270 0c30,0 54,24 54,53 0,30 -24,54 -54,54z"/>
   <polygon class="fil0" points="421,1365 453,1365 453,479 421,479 "/>
   <polygon class="fil0" points="562,1365 594,1365 594,479 562,479 "/>
   <polygon class="fil0" points="703,1365 734,1365 734,479 703,479 "/>
   <polygon class="fil0" points="844,1365 875,1365 875,479 844,479 "/>
   <path class="fil0" d="M1564 1054c-95,0 -172,-77 -172,-173l31 0c0,78 64,141 141,141l0 32z"/>
   <path class="fil0" d="M1423 1436l-31 0c0,-95 77,-173 172,-173l0 32c-77,0 -141,63 -141,141z"/>
   <path class="fil0" d="M1290 869l-36 0c0,-52 -49,-94 -110,-94l-103 0 0 -31 103 0c81,0 146,56 146,125z"/>
   <polygon class="fil0" points="99,1457 157,1457 157,1426 99,1426 "/>
   <polygon class="fil0" points="890,104 1149,104 1149,73 890,73 "/>
  </g>
 </g>
</svg>
>>>>>>> 5e8d487f7cd07eda030dcb0b1bff29dce422e99f
