{
    "key": "group_599da75541b31",
    "title": "\u0413\u043e\u0434",
    "fields": [
        {
            "key": "field_599da771f65e5",
            "label": "\u0413\u043e\u0434 \u0444\u043e\u0442\u043e\u043e\u0442\u0447\u0435\u0442\u0430",
            "name": "mitacle_tour_gallery_post_year",
            "type": "number",
            "instructions": "\u0412\u0432\u0435\u0434\u0438\u0442\u0435 \u0433\u043e\u0434 \u0444\u043e\u0442\u043e\u0441\u044a\u0435\u043c\u043a\u0438",
            "required": 1,
            "conditional_logic": 0,
            "wrapper": {
                "width": "",
                "class": "",
                "id": ""
            },
            "default_value": 2016,
            "placeholder": "",
            "prepend": "",
            "append": "",
            "min": 2000,
            "max": 2030,
            "step": 1
        }
    ],
    "location": [
        [
            {
                "param": "post_type",
                "operator": "==",
                "value": "tour-gallery"
            }
        ]
    ],
    "menu_order": 0,
    "position": "side",
    "style": "default",
    "label_placement": "top",
    "instruction_placement": "field",
    "hide_on_screen": "",
    "active": 1,
    "description": "",
    "modified": 1503504340
}